//Section   Type   Level   Dur   Skill   Luck   Option  
13	    0	    0	    0	   0	  1	  0	0 //Guardian Angel
13	    1	    0	    0	   0	  1	  0	0 //Imp
14	    1	    0	    10	   0	  1	  0	0 //Small Healing Potion
14	    2	    0	    10	   0	  1	  0	0 //Healing Potion
14	    3	    0	    10	   0	  1	  0	0 //Large Healing Potion
14	    4	    0	    10	   0	  1	  0	0 //Small Mana Potion
14	    5	    0	    10	   0	  1	  0	0 //Mana Potion
14	    6	    0	    10	   0	  1	  0	0 //Mana Potion
13	    29	    0	    0	   0	  1	  0	0 //Armor of Guardsman
14	    10	    0	    0	   0	  1	  0	0 //Town Portal Scroll
end
