//Section   Type   Level   Dur   Skill   Luck   Option   Excellent
13	    0	   0	   0	 0	 1	0	 0 //Guardian Angel
13	    1	   0	   0	 0	 1	0	 0 //Imp
14          1      0       10     0       0      0        0
14          2      0       10     0       0      0        0
14          3      0       10     0       0      0        0
14          4      0       10     0       0      0        0
14          5      0       10     0       0      0        0
14          6      0       10     0       0      0        0


7           10     0       0     0       0      1        0
7           11     0       0     0       0      1        0
7           12     0       0     0       0      1        0
7           13     0       0     0       0      1        0

8           10     0       0     0       0      1        0
8           11     0       0     0       0      1        0
8           12     0       0     0       0      1        0
8           13     0       0     0       0      1        0

9           10     0       0     0       0      1        0
9           11     0       0     0       0      1        0
9           12     0       0     0       0      1        0
9           13     0       0     0       0      1        0

10          10     0       0     0       0      1        0
10          11     0       0     0       0      1        0
10          12     0       0     0       0      1        0
10          13     0       0     0       0      1        0

11          10     0       0     0       0      1        0
11          11     0       0     0       0      1        0
11          12     0       0     0       0      1        0
11          13     0       0     0       0      1        0

end

