00:01:41 [Chaos Castle Survival][GDChaosCastleSurvivalRenewallRanking] [BattleType:1]
00:01:41 [Chaos Castle Survival][End of Day] Preparing for reset...
00:01:41 [DGReqLabyrinthLeagueResetDayInfo] Reset All Information...
00:10:41 [ChaosCastleFinal][End of Day] Resetting Event...
00:10:41 [Chaos Castle Survival] Sync Start Time. [74] min remain
00:10:41 [Chaos Castle Survival][GDChaosCastleSurvivalRenewallRanking] [BattleType:1]
00:10:41 [Chaos Castle Survival] Ranking Load Successful [RankingCount:0]
00:10:41 [Chaos Castle Survival] SetState EMPTY
01:25:01 [Chaos Castle Survival] SetState STAND
01:25:02 [Chaos Castle Survival] Not enough users
01:25:02 [Chaos Castle Survival] Sync Start Time. [189] min remain
01:25:02 [Chaos Castle Survival][GDChaosCastleSurvivalRenewallRanking] [BattleType:1]
01:25:02 [Chaos Castle Survival] Ranking Load Successful [RankingCount:0]
01:25:02 [Chaos Castle Survival] SetState EMPTY
04:35:00 [Chaos Castle Survival] SetState STAND
04:35:01 [Chaos Castle Survival] Not enough users
04:35:01 [Chaos Castle Survival] Sync Start Time. [24] min remain
04:35:01 [Chaos Castle Survival][GDChaosCastleSurvivalRenewallRanking] [BattleType:1]
04:35:01 [Chaos Castle Survival] Ranking Load Successful [RankingCount:0]
04:35:01 [Chaos Castle Survival] SetState EMPTY
05:00:00 [Chaos Castle Survival] SetState STAND
05:00:01 [Chaos Castle Survival] Not enough users
05:00:01 [Chaos Castle Survival] Sync Start Time. [119] min remain
05:00:01 [Chaos Castle Survival][GDChaosCastleSurvivalRenewallRanking] [BattleType:1]
05:00:01 [Chaos Castle Survival] Ranking Load Successful [RankingCount:0]
05:00:01 [Chaos Castle Survival] SetState EMPTY
06:04:00 [DSN][Proc_DSNState_None] After 10 minutes, the [Devil Square Normal Battle] door closes. RoomIndex ==> 0
06:04:00 [DSN][Proc_DSNState_None] After 10 minutes, the [Devil Square Normal Battle] door closes. RoomIndex ==> 1
06:04:00 [DSN][Proc_DSNState_None] After 10 minutes, the [Devil Square Normal Battle] door closes. RoomIndex ==> 2
06:04:00 [DSN][Proc_DSNState_None] After 10 minutes, the [Devil Square Normal Battle] door closes. RoomIndex ==> 3
06:09:05 [DSN][Proc_DSNState_None] After 5 minutes, the [Devil Square Normal Battle] door closes. RoomIndex ==> 0
06:09:05 [DSN][Proc_DSNState_None] After 5 minutes, the [Devil Square Normal Battle] door closes. RoomIndex ==> 1
06:09:05 [DSN][Proc_DSNState_None] After 5 minutes, the [Devil Square Normal Battle] door closes. RoomIndex ==> 2
06:09:05 [DSN][Proc_DSNState_None] After 5 minutes, the [Devil Square Normal Battle] door closes. RoomIndex ==> 3
06:09:05 [DSN][Proc_DSNState_None] Admission is possible. RoomIndex ==> 0
06:09:05 [DSN][Proc_DSNState_None] Admission is possible. RoomIndex ==> 1
06:09:05 [DSN][Proc_DSNState_None] Admission is possible. RoomIndex ==> 2
06:09:05 [DSN][Proc_DSNState_None] Admission is possible. RoomIndex ==> 3
06:10:06 [DSN][Proc_DSNState_None] After 4 minutes, the [Devil Square Normal Battle] door closes. RoomIndex ==> 0
06:10:06 [DSN][Proc_DSNState_None] After 4 minutes, the [Devil Square Normal Battle] door closes. RoomIndex ==> 1
06:10:06 [DSN][Proc_DSNState_None] After 4 minutes, the [Devil Square Normal Battle] door closes. RoomIndex ==> 2
06:10:06 [DSN][Proc_DSNState_None] After 4 minutes, the [Devil Square Normal Battle] door closes. RoomIndex ==> 3
06:11:07 [DSN][Proc_DSNState_None] After 3 minutes, the [Devil Square Normal Battle] door closes. RoomIndex ==> 0
06:11:07 [DSN][Proc_DSNState_None] After 3 minutes, the [Devil Square Normal Battle] door closes. RoomIndex ==> 1
06:11:07 [DSN][Proc_DSNState_None] After 3 minutes, the [Devil Square Normal Battle] door closes. RoomIndex ==> 2
06:11:07 [DSN][Proc_DSNState_None] After 3 minutes, the [Devil Square Normal Battle] door closes. RoomIndex ==> 3
06:12:08 [DSN][Proc_DSNState_None] After 2 minutes, the [Devil Square Normal Battle] door closes. RoomIndex ==> 0
06:12:08 [DSN][Proc_DSNState_None] After 2 minutes, the [Devil Square Normal Battle] door closes. RoomIndex ==> 1
06:12:08 [DSN][Proc_DSNState_None] After 2 minutes, the [Devil Square Normal Battle] door closes. RoomIndex ==> 2
06:12:08 [DSN][Proc_DSNState_None] After 2 minutes, the [Devil Square Normal Battle] door closes. RoomIndex ==> 3
06:13:09 [DSN][Proc_DSNState_None] After 1 minutes, the [Devil Square Normal Battle] door closes. RoomIndex ==> 0
06:13:09 [DSN][Proc_DSNState_None] After 1 minutes, the [Devil Square Normal Battle] door closes. RoomIndex ==> 1
06:13:09 [DSN][Proc_DSNState_None] After 1 minutes, the [Devil Square Normal Battle] door closes. RoomIndex ==> 2
06:13:09 [DSN][Proc_DSNState_None] After 1 minutes, the [Devil Square Normal Battle] door closes. RoomIndex ==> 3
06:14:03 [DSN][Proc_DSNState_None] The door is closed. RoomIndex ==> 0
06:14:03 [DSN][Proc_DSNState_None] The door is closed. RoomIndex ==> 1
06:14:03 [DSN][Proc_DSNState_None] The door is closed. RoomIndex ==> 2
06:14:03 [DSN][Proc_DSNState_None] The door is closed. RoomIndex ==> 3
06:14:10 [DSN][DebugLog][UserData_Arr][Set_DSNState_Ready]Team : 255 UserName:  UserIndex:-1 RoomIndex ==> 0
06:14:10 [DSN][DebugLog][UserData_Arr][Set_DSNState_Ready]Team : 255 UserName:  UserIndex:-1 RoomIndex ==> 0
06:14:10 [DSN][DebugLog][UserData_Arr][Set_DSNState_Ready]Team : 255 UserName:  UserIndex:-1 RoomIndex ==> 0
06:14:10 [DSN][DebugLog][UserData_Arr][Set_DSNState_Ready]Team : 255 UserName:  UserIndex:-1 RoomIndex ==> 0
06:14:10 [DSN][DebugLog][UserData_Arr][Set_DSNState_Ready]Team : 255 UserName:  UserIndex:-1 RoomIndex ==> 0
06:14:10 [DSN][DebugLog][UserData_Arr][Set_DSNState_Ready]Team : 255 UserName:  UserIndex:-1 RoomIndex ==> 0
06:14:10 [DSN][DebugLog][UserData_Arr][Set_DSNState_Ready]Team : 255 UserName:  UserIndex:-1 RoomIndex ==> 0
06:14:10 [DSN][DebugLog][UserData_Arr][Set_DSNState_Ready]Team : 255 UserName:  UserIndex:-1 RoomIndex ==> 0
06:14:10 [DSN][DebugLog][UserData_Arr][Set_DSNState_Ready]Team : 255 UserName:  UserIndex:-1 RoomIndex ==> 0
06:14:10 [DSN][DebugLog][UserData_Arr][Set_DSNState_Ready]Team : 255 UserName:  UserIndex:-1 RoomIndex ==> 0
06:14:10 [DSN][DebugLog][UserData_Arr][Set_DSNState_Ready]Team : 255 UserName:  UserIndex:-1 RoomIndex ==> 0
06:14:10 [DSN][DebugLog][UserData_Arr][Set_DSNState_Ready]Team : 255 UserName:  UserIndex:-1 RoomIndex ==> 0
06:14:10 [DSN][DebugLog][UserData_Arr][Set_DSNState_Ready]Team : 255 UserName:  UserIndex:-1 RoomIndex ==> 0
06:14:10 [DSN][DebugLog][UserData_Arr][Set_DSNState_Ready]Team : 255 UserName:  UserIndex:-1 RoomIndex ==> 0
06:14:10 [DSN][DebugLog][UserData_Arr][Set_DSNState_Ready]Team : 255 UserName:  UserIndex:-1 RoomIndex ==> 0
06:14:10 [DSN][DebugLog][UserData_Arr][Set_DSNState_Ready]Team : 255 UserName:  UserIndex:-1 RoomIndex ==> 0
06:14:10 [DSN][DebugLog][UserData_Arr][Set_DSNState_Ready]Team : 255 UserName:  UserIndex:-1 RoomIndex ==> 0
06:14:10 [DSN][DebugLog][UserData_Arr][Set_DSNState_Ready]Team : 255 UserName:  UserIndex:-1 RoomIndex ==> 0
06:14:10 [DSN][DebugLog][UserData_Arr][Set_DSNState_Ready]Team : 255 UserName:  UserIndex:-1 RoomIndex ==> 0
06:14:10 [DSN][DebugLog][UserData_Arr][Set_DSNState_Ready]Team : 255 UserName:  UserIndex:-1 RoomIndex ==> 0
06:14:10 [DSN][DebugLog][PartyDataSave_Arr][Set_DSNState_Ready]TeamIndex:[0], PartyUserName1:, PartyUserName2:, PartyUserName3:,PartyUserName4:, PartyUserName5: ,bEntered:0 ,IsParty:0 ,bUse:0   RoomIndex ==> 0
06:14:10 [DSN][DebugLog][PartyDataSave_Arr][Set_DSNState_Ready]TeamIndex:[1], PartyUserName1:, PartyUserName2:, PartyUserName3:,PartyUserName4:, PartyUserName5: ,bEntered:0 ,IsParty:0 ,bUse:0   RoomIndex ==> 0
06:14:10 [DSN][DebugLog][PartyDataSave_Arr][Set_DSNState_Ready]TeamIndex:[2], PartyUserName1:, PartyUserName2:, PartyUserName3:,PartyUserName4:, PartyUserName5: ,bEntered:0 ,IsParty:0 ,bUse:0   RoomIndex ==> 0
06:14:10 [DSN][DebugLog][PartyDataSave_Arr][Set_DSNState_Ready]TeamIndex:[3], PartyUserName1:, PartyUserName2:, PartyUserName3:,PartyUserName4:, PartyUserName5: ,bEntered:0 ,IsParty:0 ,bUse:0   RoomIndex ==> 0
06:14:10 [DSN][DebugLog][PartyDataSave_Arr][Set_DSNState_Ready]TeamIndex:[4], PartyUserName1:, PartyUserName2:, PartyUserName3:,PartyUserName4:, PartyUserName5: ,bEntered:0 ,IsParty:0 ,bUse:0   RoomIndex ==> 0
06:14:10 [DSN][DebugLog][PartyDataSave_Arr][Set_DSNState_Ready]TeamIndex:[5], PartyUserName1:, PartyUserName2:, PartyUserName3:,PartyUserName4:, PartyUserName5: ,bEntered:0 ,IsParty:0 ,bUse:0   RoomIndex ==> 0
06:14:10 [DSN][DebugLog][PartyDataSave_Arr][Set_DSNState_Ready]TeamIndex:[6], PartyUserName1:, PartyUserName2:, PartyUserName3:,PartyUserName4:, PartyUserName5: ,bEntered:0 ,IsParty:0 ,bUse:0   RoomIndex ==> 0
06:14:10 [DSN][DebugLog][PartyDataSave_Arr][Set_DSNState_Ready]TeamIndex:[7], PartyUserName1:, PartyUserName2:, PartyUserName3:,PartyUserName4:, PartyUserName5: ,bEntered:0 ,IsParty:0 ,bUse:0   RoomIndex ==> 0
06:14:10 [DSN][DebugLog][PartyDataSave_Arr][Set_DSNState_Ready]TeamIndex:[8], PartyUserName1:, PartyUserName2:, PartyUserName3:,PartyUserName4:, PartyUserName5: ,bEntered:0 ,IsParty:0 ,bUse:0   RoomIndex ==> 0
06:14:10 [DSN][DebugLog][PartyDataSave_Arr][Set_DSNState_Ready]TeamIndex:[9], PartyUserName1:, PartyUserName2:, PartyUserName3:,PartyUserName4:, PartyUserName5: ,bEntered:0 ,IsParty:0 ,bUse:0   RoomIndex ==> 0
06:14:10 [DSN][DebugLog][PartyDataSave_Arr][Set_DSNState_Ready]TeamIndex:[10], PartyUserName1:, PartyUserName2:, PartyUserName3:,PartyUserName4:, PartyUserName5: ,bEntered:0 ,IsParty:0 ,bUse:0   RoomIndex ==> 0
06:14:10 [DSN][DebugLog][PartyDataSave_Arr][Set_DSNState_Ready]TeamIndex:[11], PartyUserName1:, PartyUserName2:, PartyUserName3:,PartyUserName4:, PartyUserName5: ,bEntered:0 ,IsParty:0 ,bUse:0   RoomIndex ==> 0
06:14:10 [DSN][DebugLog][PartyDataSave_Arr][Set_DSNState_Ready]TeamIndex:[12], PartyUserName1:, PartyUserName2:, PartyUserName3:,PartyUserName4:, PartyUserName5: ,bEntered:0 ,IsParty:0 ,bUse:0   RoomIndex ==> 0
06:14:10 [DSN][DebugLog][PartyDataSave_Arr][Set_DSNState_Ready]TeamIndex:[13], PartyUserName1:, PartyUserName2:, PartyUserName3:,PartyUserName4:, PartyUserName5: ,bEntered:0 ,IsParty:0 ,bUse:0   RoomIndex ==> 0
06:14:10 [DSN][DebugLog][PartyDataSave_Arr][Set_DSNState_Ready]TeamIndex:[14], PartyUserName1:, PartyUserName2:, PartyUserName3:,PartyUserName4:, PartyUserName5: ,bEntered:0 ,IsParty:0 ,bUse:0   RoomIndex ==> 0
06:14:10 [DSN][DebugLog][PartyDataSave_Arr][Set_DSNState_Ready]TeamIndex:[15], PartyUserName1:, PartyUserName2:, PartyUserName3:,PartyUserName4:, PartyUserName5: ,bEntered:0 ,IsParty:0 ,bUse:0   RoomIndex ==> 0
06:14:10 [DSN][DebugLog][PartyDataSave_Arr][Set_DSNState_Ready]TeamIndex:[16], PartyUserName1:, PartyUserName2:, PartyUserName3:,PartyUserName4:, PartyUserName5: ,bEntered:0 ,IsParty:0 ,bUse:0   RoomIndex ==> 0
06:14:10 [DSN][DebugLog][PartyDataSave_Arr][Set_DSNState_Ready]TeamIndex:[17], PartyUserName1:, PartyUserName2:, PartyUserName3:,PartyUserName4:, PartyUserName5: ,bEntered:0 ,IsParty:0 ,bUse:0   RoomIndex ==> 0
06:14:10 [DSN][DebugLog][PartyDataSave_Arr][Set_DSNState_Ready]TeamIndex:[18], PartyUserName1:, PartyUserName2:, PartyUserName3:,PartyUserName4:, PartyUserName5: ,bEntered:0 ,IsParty:0 ,bUse:0   RoomIndex ==> 0
06:14:10 [DSN][DebugLog][PartyDataSave_Arr][Set_DSNState_Ready]TeamIndex:[19], PartyUserName1:, PartyUserName2:, PartyUserName3:,PartyUserName4:, PartyUserName5: ,bEntered:0 ,IsParty:0 ,bUse:0   RoomIndex ==> 0
06:14:10 [DSN][Set_DSNState_Ready] Ready processing. RoomIndex ==> 0
06:14:10 [DSN][DebugLog][UserData_Arr][Set_DSNState_Ready]Team : 255 UserName:  UserIndex:-1 RoomIndex ==> 1
06:14:10 [DSN][DebugLog][UserData_Arr][Set_DSNState_Ready]Team : 255 UserName:  UserIndex:-1 RoomIndex ==> 1
06:14:10 [DSN][DebugLog][UserData_Arr][Set_DSNState_Ready]Team : 255 UserName:  UserIndex:-1 RoomIndex ==> 1
06:14:10 [DSN][DebugLog][UserData_Arr][Set_DSNState_Ready]Team : 255 UserName:  UserIndex:-1 RoomIndex ==> 1
06:14:10 [DSN][DebugLog][UserData_Arr][Set_DSNState_Ready]Team : 255 UserName:  UserIndex:-1 RoomIndex ==> 1
06:14:10 [DSN][DebugLog][UserData_Arr][Set_DSNState_Ready]Team : 255 UserName:  UserIndex:-1 RoomIndex ==> 1
06:14:10 [DSN][DebugLog][UserData_Arr][Set_DSNState_Ready]Team : 255 UserName:  UserIndex:-1 RoomIndex ==> 1
06:14:10 [DSN][DebugLog][UserData_Arr][Set_DSNState_Ready]Team : 255 UserName:  UserIndex:-1 RoomIndex ==> 1
06:14:10 [DSN][DebugLog][UserData_Arr][Set_DSNState_Ready]Team : 255 UserName:  UserIndex:-1 RoomIndex ==> 1
06:14:10 [DSN][DebugLog][UserData_Arr][Set_DSNState_Ready]Team : 255 UserName:  UserIndex:-1 RoomIndex ==> 1
06:14:10 [DSN][DebugLog][UserData_Arr][Set_DSNState_Ready]Team : 255 UserName:  UserIndex:-1 RoomIndex ==> 1
06:14:10 [DSN][DebugLog][UserData_Arr][Set_DSNState_Ready]Team : 255 UserName:  UserIndex:-1 RoomIndex ==> 1
06:14:10 [DSN][DebugLog][UserData_Arr][Set_DSNState_Ready]Team : 255 UserName:  UserIndex:-1 RoomIndex ==> 1
06:14:10 [DSN][DebugLog][UserData_Arr][Set_DSNState_Ready]Team : 255 UserName:  UserIndex:-1 RoomIndex ==> 1
06:14:10 [DSN][DebugLog][UserData_Arr][Set_DSNState_Ready]Team : 255 UserName:  UserIndex:-1 RoomIndex ==> 1
06:14:10 [DSN][DebugLog][UserData_Arr][Set_DSNState_Ready]Team : 255 UserName:  UserIndex:-1 RoomIndex ==> 1
06:14:10 [DSN][DebugLog][UserData_Arr][Set_DSNState_Ready]Team : 255 UserName:  UserIndex:-1 RoomIndex ==> 1
06:14:10 [DSN][DebugLog][UserData_Arr][Set_DSNState_Ready]Team : 255 UserName:  UserIndex:-1 RoomIndex ==> 1
06:14:10 [DSN][DebugLog][UserData_Arr][Set_DSNState_Ready]Team : 255 UserName:  UserIndex:-1 RoomIndex ==> 1
06:14:10 [DSN][DebugLog][UserData_Arr][Set_DSNState_Ready]Team : 255 UserName:  UserIndex:-1 RoomIndex ==> 1
06:14:10 [DSN][DebugLog][PartyDataSave_Arr][Set_DSNState_Ready]TeamIndex:[0], PartyUserName1:, PartyUserName2:, PartyUserName3:,PartyUserName4:, PartyUserName5: ,bEntered:0 ,IsParty:0 ,bUse:0   RoomIndex ==> 1
06:14:10 [DSN][DebugLog][PartyDataSave_Arr][Set_DSNState_Ready]TeamIndex:[1], PartyUserName1:, PartyUserName2:, PartyUserName3:,PartyUserName4:, PartyUserName5: ,bEntered:0 ,IsParty:0 ,bUse:0   RoomIndex ==> 1
06:14:10 [DSN][DebugLog][PartyDataSave_Arr][Set_DSNState_Ready]TeamIndex:[2], PartyUserName1:, PartyUserName2:, PartyUserName3:,PartyUserName4:, PartyUserName5: ,bEntered:0 ,IsParty:0 ,bUse:0   RoomIndex ==> 1
06:14:10 [DSN][DebugLog][PartyDataSave_Arr][Set_DSNState_Ready]TeamIndex:[3], PartyUserName1:, PartyUserName2:, PartyUserName3:,PartyUserName4:, PartyUserName5: ,bEntered:0 ,IsParty:0 ,bUse:0   RoomIndex ==> 1
06:14:10 [DSN][DebugLog][PartyDataSave_Arr][Set_DSNState_Ready]TeamIndex:[4], PartyUserName1:, PartyUserName2:, PartyUserName3:,PartyUserName4:, PartyUserName5: ,bEntered:0 ,IsParty:0 ,bUse:0   RoomIndex ==> 1
06:14:10 [DSN][DebugLog][PartyDataSave_Arr][Set_DSNState_Ready]TeamIndex:[5], PartyUserName1:, PartyUserName2:, PartyUserName3:,PartyUserName4:, PartyUserName5: ,bEntered:0 ,IsParty:0 ,bUse:0   RoomIndex ==> 1
06:14:10 [DSN][DebugLog][PartyDataSave_Arr][Set_DSNState_Ready]TeamIndex:[6], PartyUserName1:, PartyUserName2:, PartyUserName3:,PartyUserName4:, PartyUserName5: ,bEntered:0 ,IsParty:0 ,bUse:0   RoomIndex ==> 1
06:14:10 [DSN][DebugLog][PartyDataSave_Arr][Set_DSNState_Ready]TeamIndex:[7], PartyUserName1:, PartyUserName2:, PartyUserName3:,PartyUserName4:, PartyUserName5: ,bEntered:0 ,IsParty:0 ,bUse:0   RoomIndex ==> 1
06:14:10 [DSN][DebugLog][PartyDataSave_Arr][Set_DSNState_Ready]TeamIndex:[8], PartyUserName1:, PartyUserName2:, PartyUserName3:,PartyUserName4:, PartyUserName5: ,bEntered:0 ,IsParty:0 ,bUse:0   RoomIndex ==> 1
06:14:10 [DSN][DebugLog][PartyDataSave_Arr][Set_DSNState_Ready]TeamIndex:[9], PartyUserName1:, PartyUserName2:, PartyUserName3:,PartyUserName4:, PartyUserName5: ,bEntered:0 ,IsParty:0 ,bUse:0   RoomIndex ==> 1
06:14:10 [DSN][DebugLog][PartyDataSave_Arr][Set_DSNState_Ready]TeamIndex:[10], PartyUserName1:, PartyUserName2:, PartyUserName3:,PartyUserName4:, PartyUserName5: ,bEntered:0 ,IsParty:0 ,bUse:0   RoomIndex ==> 1
06:14:10 [DSN][DebugLog][PartyDataSave_Arr][Set_DSNState_Ready]TeamIndex:[11], PartyUserName1:, PartyUserName2:, PartyUserName3:,PartyUserName4:, PartyUserName5: ,bEntered:0 ,IsParty:0 ,bUse:0   RoomIndex ==> 1
06:14:10 [DSN][DebugLog][PartyDataSave_Arr][Set_DSNState_Ready]TeamIndex:[12], PartyUserName1:, PartyUserName2:, PartyUserName3:,PartyUserName4:, PartyUserName5: ,bEntered:0 ,IsParty:0 ,bUse:0   RoomIndex ==> 1
06:14:10 [DSN][DebugLog][PartyDataSave_Arr][Set_DSNState_Ready]TeamIndex:[13], PartyUserName1:, PartyUserName2:, PartyUserName3:,PartyUserName4:, PartyUserName5: ,bEntered:0 ,IsParty:0 ,bUse:0   RoomIndex ==> 1
06:14:10 [DSN][DebugLog][PartyDataSave_Arr][Set_DSNState_Ready]TeamIndex:[14], PartyUserName1:, PartyUserName2:, PartyUserName3:,PartyUserName4:, PartyUserName5: ,bEntered:0 ,IsParty:0 ,bUse:0   RoomIndex ==> 1
06:14:10 [DSN][DebugLog][PartyDataSave_Arr][Set_DSNState_Ready]TeamIndex:[15], PartyUserName1:, PartyUserName2:, PartyUserName3:,PartyUserName4:, PartyUserName5: ,bEntered:0 ,IsParty:0 ,bUse:0   RoomIndex ==> 1
06:14:10 [DSN][DebugLog][PartyDataSave_Arr][Set_DSNState_Ready]TeamIndex:[16], PartyUserName1:, PartyUserName2:, PartyUserName3:,PartyUserName4:, PartyUserName5: ,bEntered:0 ,IsParty:0 ,bUse:0   RoomIndex ==> 1
06:14:10 [DSN][DebugLog][PartyDataSave_Arr][Set_DSNState_Ready]TeamIndex:[17], PartyUserName1:, PartyUserName2:, PartyUserName3:,PartyUserName4:, PartyUserName5: ,bEntered:0 ,IsParty:0 ,bUse:0   RoomIndex ==> 1
06:14:10 [DSN][DebugLog][PartyDataSave_Arr][Set_DSNState_Ready]TeamIndex:[18], PartyUserName1:, PartyUserName2:, PartyUserName3:,PartyUserName4:, PartyUserName5: ,bEntered:0 ,IsParty:0 ,bUse:0   RoomIndex ==> 1
06:14:10 [DSN][DebugLog][PartyDataSave_Arr][Set_DSNState_Ready]TeamIndex:[19], PartyUserName1:, PartyUserName2:, PartyUserName3:,PartyUserName4:, PartyUserName5: ,bEntered:0 ,IsParty:0 ,bUse:0   RoomIndex ==> 1
06:14:10 [DSN][Set_DSNState_Ready] Ready processing. RoomIndex ==> 1
06:14:10 [DSN][DebugLog][UserData_Arr][Set_DSNState_Ready]Team : 255 UserName:  UserIndex:-1 RoomIndex ==> 2
06:14:10 [DSN][DebugLog][UserData_Arr][Set_DSNState_Ready]Team : 255 UserName:  UserIndex:-1 RoomIndex ==> 2
06:14:10 [DSN][DebugLog][UserData_Arr][Set_DSNState_Ready]Team : 255 UserName:  UserIndex:-1 RoomIndex ==> 2
06:14:10 [DSN][DebugLog][UserData_Arr][Set_DSNState_Ready]Team : 255 UserName:  UserIndex:-1 RoomIndex ==> 2
06:14:10 [DSN][DebugLog][UserData_Arr][Set_DSNState_Ready]Team : 255 UserName:  UserIndex:-1 RoomIndex ==> 2
06:14:10 [DSN][DebugLog][UserData_Arr][Set_DSNState_Ready]Team : 255 UserName:  UserIndex:-1 RoomIndex ==> 2
06:14:10 [DSN][DebugLog][UserData_Arr][Set_DSNState_Ready]Team : 255 UserName:  UserIndex:-1 RoomIndex ==> 2
06:14:10 [DSN][DebugLog][UserData_Arr][Set_DSNState_Ready]Team : 255 UserName:  UserIndex:-1 RoomIndex ==> 2
06:14:10 [DSN][DebugLog][UserData_Arr][Set_DSNState_Ready]Team : 255 UserName:  UserIndex:-1 RoomIndex ==> 2
06:14:10 [DSN][DebugLog][UserData_Arr][Set_DSNState_Ready]Team : 255 UserName:  UserIndex:-1 RoomIndex ==> 2
06:14:10 [DSN][DebugLog][UserData_Arr][Set_DSNState_Ready]Team : 255 UserName:  UserIndex:-1 RoomIndex ==> 2
06:14:10 [DSN][DebugLog][UserData_Arr][Set_DSNState_Ready]Team : 255 UserName:  UserIndex:-1 RoomIndex ==> 2
06:14:10 [DSN][DebugLog][UserData_Arr][Set_DSNState_Ready]Team : 255 UserName:  UserIndex:-1 RoomIndex ==> 2
06:14:10 [DSN][DebugLog][UserData_Arr][Set_DSNState_Ready]Team : 255 UserName:  UserIndex:-1 RoomIndex ==> 2
06:14:10 [DSN][DebugLog][UserData_Arr][Set_DSNState_Ready]Team : 255 UserName:  UserIndex:-1 RoomIndex ==> 2
06:14:10 [DSN][DebugLog][UserData_Arr][Set_DSNState_Ready]Team : 255 UserName:  UserIndex:-1 RoomIndex ==> 2
06:14:10 [DSN][DebugLog][UserData_Arr][Set_DSNState_Ready]Team : 255 UserName:  UserIndex:-1 RoomIndex ==> 2
06:14:10 [DSN][DebugLog][UserData_Arr][Set_DSNState_Ready]Team : 255 UserName:  UserIndex:-1 RoomIndex ==> 2
06:14:10 [DSN][DebugLog][UserData_Arr][Set_DSNState_Ready]Team : 255 UserName:  UserIndex:-1 RoomIndex ==> 2
06:14:10 [DSN][DebugLog][UserData_Arr][Set_DSNState_Ready]Team : 255 UserName:  UserIndex:-1 RoomIndex ==> 2
06:14:10 [DSN][DebugLog][PartyDataSave_Arr][Set_DSNState_Ready]TeamIndex:[0], PartyUserName1:, PartyUserName2:, PartyUserName3:,PartyUserName4:, PartyUserName5: ,bEntered:0 ,IsParty:0 ,bUse:0   RoomIndex ==> 2
06:14:10 [DSN][DebugLog][PartyDataSave_Arr][Set_DSNState_Ready]TeamIndex:[1], PartyUserName1:, PartyUserName2:, PartyUserName3:,PartyUserName4:, PartyUserName5: ,bEntered:0 ,IsParty:0 ,bUse:0   RoomIndex ==> 2
06:14:10 [DSN][DebugLog][PartyDataSave_Arr][Set_DSNState_Ready]TeamIndex:[2], PartyUserName1:, PartyUserName2:, PartyUserName3:,PartyUserName4:, PartyUserName5: ,bEntered:0 ,IsParty:0 ,bUse:0   RoomIndex ==> 2
06:14:10 [DSN][DebugLog][PartyDataSave_Arr][Set_DSNState_Ready]TeamIndex:[3], PartyUserName1:, PartyUserName2:, PartyUserName3:,PartyUserName4:, PartyUserName5: ,bEntered:0 ,IsParty:0 ,bUse:0   RoomIndex ==> 2
06:14:10 [DSN][DebugLog][PartyDataSave_Arr][Set_DSNState_Ready]TeamIndex:[4], PartyUserName1:, PartyUserName2:, PartyUserName3:,PartyUserName4:, PartyUserName5: ,bEntered:0 ,IsParty:0 ,bUse:0   RoomIndex ==> 2
06:14:10 [DSN][DebugLog][PartyDataSave_Arr][Set_DSNState_Ready]TeamIndex:[5], PartyUserName1:, PartyUserName2:, PartyUserName3:,PartyUserName4:, PartyUserName5: ,bEntered:0 ,IsParty:0 ,bUse:0   RoomIndex ==> 2
06:14:10 [DSN][DebugLog][PartyDataSave_Arr][Set_DSNState_Ready]TeamIndex:[6], PartyUserName1:, PartyUserName2:, PartyUserName3:,PartyUserName4:, PartyUserName5: ,bEntered:0 ,IsParty:0 ,bUse:0   RoomIndex ==> 2
06:14:10 [DSN][DebugLog][PartyDataSave_Arr][Set_DSNState_Ready]TeamIndex:[7], PartyUserName1:, PartyUserName2:, PartyUserName3:,PartyUserName4:, PartyUserName5: ,bEntered:0 ,IsParty:0 ,bUse:0   RoomIndex ==> 2
06:14:10 [DSN][DebugLog][PartyDataSave_Arr][Set_DSNState_Ready]TeamIndex:[8], PartyUserName1:, PartyUserName2:, PartyUserName3:,PartyUserName4:, PartyUserName5: ,bEntered:0 ,IsParty:0 ,bUse:0   RoomIndex ==> 2
06:14:10 [DSN][DebugLog][PartyDataSave_Arr][Set_DSNState_Ready]TeamIndex:[9], PartyUserName1:, PartyUserName2:, PartyUserName3:,PartyUserName4:, PartyUserName5: ,bEntered:0 ,IsParty:0 ,bUse:0   RoomIndex ==> 2
06:14:10 [DSN][DebugLog][PartyDataSave_Arr][Set_DSNState_Ready]TeamIndex:[10], PartyUserName1:, PartyUserName2:, PartyUserName3:,PartyUserName4:, PartyUserName5: ,bEntered:0 ,IsParty:0 ,bUse:0   RoomIndex ==> 2
06:14:10 [DSN][DebugLog][PartyDataSave_Arr][Set_DSNState_Ready]TeamIndex:[11], PartyUserName1:, PartyUserName2:, PartyUserName3:,PartyUserName4:, PartyUserName5: ,bEntered:0 ,IsParty:0 ,bUse:0   RoomIndex ==> 2
06:14:10 [DSN][DebugLog][PartyDataSave_Arr][Set_DSNState_Ready]TeamIndex:[12], PartyUserName1:, PartyUserName2:, PartyUserName3:,PartyUserName4:, PartyUserName5: ,bEntered:0 ,IsParty:0 ,bUse:0   RoomIndex ==> 2
06:14:10 [DSN][DebugLog][PartyDataSave_Arr][Set_DSNState_Ready]TeamIndex:[13], PartyUserName1:, PartyUserName2:, PartyUserName3:,PartyUserName4:, PartyUserName5: ,bEntered:0 ,IsParty:0 ,bUse:0   RoomIndex ==> 2
06:14:10 [DSN][DebugLog][PartyDataSave_Arr][Set_DSNState_Ready]TeamIndex:[14], PartyUserName1:, PartyUserName2:, PartyUserName3:,PartyUserName4:, PartyUserName5: ,bEntered:0 ,IsParty:0 ,bUse:0   RoomIndex ==> 2
06:14:10 [DSN][DebugLog][PartyDataSave_Arr][Set_DSNState_Ready]TeamIndex:[15], PartyUserName1:, PartyUserName2:, PartyUserName3:,PartyUserName4:, PartyUserName5: ,bEntered:0 ,IsParty:0 ,bUse:0   RoomIndex ==> 2
06:14:10 [DSN][DebugLog][PartyDataSave_Arr][Set_DSNState_Ready]TeamIndex:[16], PartyUserName1:, PartyUserName2:, PartyUserName3:,PartyUserName4:, PartyUserName5: ,bEntered:0 ,IsParty:0 ,bUse:0   RoomIndex ==> 2
06:14:10 [DSN][DebugLog][PartyDataSave_Arr][Set_DSNState_Ready]TeamIndex:[17], PartyUserName1:, PartyUserName2:, PartyUserName3:,PartyUserName4:, PartyUserName5: ,bEntered:0 ,IsParty:0 ,bUse:0   RoomIndex ==> 2
06:14:10 [DSN][DebugLog][PartyDataSave_Arr][Set_DSNState_Ready]TeamIndex:[18], PartyUserName1:, PartyUserName2:, PartyUserName3:,PartyUserName4:, PartyUserName5: ,bEntered:0 ,IsParty:0 ,bUse:0   RoomIndex ==> 2
06:14:10 [DSN][DebugLog][PartyDataSave_Arr][Set_DSNState_Ready]TeamIndex:[19], PartyUserName1:, PartyUserName2:, PartyUserName3:,PartyUserName4:, PartyUserName5: ,bEntered:0 ,IsParty:0 ,bUse:0   RoomIndex ==> 2
06:14:10 [DSN][Set_DSNState_Ready] Ready processing. RoomIndex ==> 2
06:14:10 [DSN][DebugLog][UserData_Arr][Set_DSNState_Ready]Team : 255 UserName:  UserIndex:-1 RoomIndex ==> 3
06:14:10 [DSN][DebugLog][UserData_Arr][Set_DSNState_Ready]Team : 255 UserName:  UserIndex:-1 RoomIndex ==> 3
06:14:10 [DSN][DebugLog][UserData_Arr][Set_DSNState_Ready]Team : 255 UserName:  UserIndex:-1 RoomIndex ==> 3
06:14:10 [DSN][DebugLog][UserData_Arr][Set_DSNState_Ready]Team : 255 UserName:  UserIndex:-1 RoomIndex ==> 3
06:14:10 [DSN][DebugLog][UserData_Arr][Set_DSNState_Ready]Team : 255 UserName:  UserIndex:-1 RoomIndex ==> 3
06:14:10 [DSN][DebugLog][UserData_Arr][Set_DSNState_Ready]Team : 255 UserName:  UserIndex:-1 RoomIndex ==> 3
06:14:10 [DSN][DebugLog][UserData_Arr][Set_DSNState_Ready]Team : 255 UserName:  UserIndex:-1 RoomIndex ==> 3
06:14:10 [DSN][DebugLog][UserData_Arr][Set_DSNState_Ready]Team : 255 UserName:  UserIndex:-1 RoomIndex ==> 3
06:14:10 [DSN][DebugLog][UserData_Arr][Set_DSNState_Ready]Team : 255 UserName:  UserIndex:-1 RoomIndex ==> 3
06:14:10 [DSN][DebugLog][UserData_Arr][Set_DSNState_Ready]Team : 255 UserName:  UserIndex:-1 RoomIndex ==> 3
06:14:10 [DSN][DebugLog][UserData_Arr][Set_DSNState_Ready]Team : 255 UserName:  UserIndex:-1 RoomIndex ==> 3
06:14:10 [DSN][DebugLog][UserData_Arr][Set_DSNState_Ready]Team : 255 UserName:  UserIndex:-1 RoomIndex ==> 3
06:14:10 [DSN][DebugLog][UserData_Arr][Set_DSNState_Ready]Team : 255 UserName:  UserIndex:-1 RoomIndex ==> 3
06:14:10 [DSN][DebugLog][UserData_Arr][Set_DSNState_Ready]Team : 255 UserName:  UserIndex:-1 RoomIndex ==> 3
06:14:10 [DSN][DebugLog][UserData_Arr][Set_DSNState_Ready]Team : 255 UserName:  UserIndex:-1 RoomIndex ==> 3
06:14:10 [DSN][DebugLog][UserData_Arr][Set_DSNState_Ready]Team : 255 UserName:  UserIndex:-1 RoomIndex ==> 3
06:14:10 [DSN][DebugLog][UserData_Arr][Set_DSNState_Ready]Team : 255 UserName:  UserIndex:-1 RoomIndex ==> 3
06:14:10 [DSN][DebugLog][UserData_Arr][Set_DSNState_Ready]Team : 255 UserName:  UserIndex:-1 RoomIndex ==> 3
06:14:10 [DSN][DebugLog][UserData_Arr][Set_DSNState_Ready]Team : 255 UserName:  UserIndex:-1 RoomIndex ==> 3
06:14:10 [DSN][DebugLog][UserData_Arr][Set_DSNState_Ready]Team : 255 UserName:  UserIndex:-1 RoomIndex ==> 3
06:14:10 [DSN][DebugLog][PartyDataSave_Arr][Set_DSNState_Ready]TeamIndex:[0], PartyUserName1:, PartyUserName2:, PartyUserName3:,PartyUserName4:, PartyUserName5: ,bEntered:0 ,IsParty:0 ,bUse:0   RoomIndex ==> 3
06:14:10 [DSN][DebugLog][PartyDataSave_Arr][Set_DSNState_Ready]TeamIndex:[1], PartyUserName1:, PartyUserName2:, PartyUserName3:,PartyUserName4:, PartyUserName5: ,bEntered:0 ,IsParty:0 ,bUse:0   RoomIndex ==> 3
06:14:10 [DSN][DebugLog][PartyDataSave_Arr][Set_DSNState_Ready]TeamIndex:[2], PartyUserName1:, PartyUserName2:, PartyUserName3:,PartyUserName4:, PartyUserName5: ,bEntered:0 ,IsParty:0 ,bUse:0   RoomIndex ==> 3
06:14:10 [DSN][DebugLog][PartyDataSave_Arr][Set_DSNState_Ready]TeamIndex:[3], PartyUserName1:, PartyUserName2:, PartyUserName3:,PartyUserName4:, PartyUserName5: ,bEntered:0 ,IsParty:0 ,bUse:0   RoomIndex ==> 3
06:14:10 [DSN][DebugLog][PartyDataSave_Arr][Set_DSNState_Ready]TeamIndex:[4], PartyUserName1:, PartyUserName2:, PartyUserName3:,PartyUserName4:, PartyUserName5: ,bEntered:0 ,IsParty:0 ,bUse:0   RoomIndex ==> 3
06:14:10 [DSN][DebugLog][PartyDataSave_Arr][Set_DSNState_Ready]TeamIndex:[5], PartyUserName1:, PartyUserName2:, PartyUserName3:,PartyUserName4:, PartyUserName5: ,bEntered:0 ,IsParty:0 ,bUse:0   RoomIndex ==> 3
06:14:10 [DSN][DebugLog][PartyDataSave_Arr][Set_DSNState_Ready]TeamIndex:[6], PartyUserName1:, PartyUserName2:, PartyUserName3:,PartyUserName4:, PartyUserName5: ,bEntered:0 ,IsParty:0 ,bUse:0   RoomIndex ==> 3
06:14:10 [DSN][DebugLog][PartyDataSave_Arr][Set_DSNState_Ready]TeamIndex:[7], PartyUserName1:, PartyUserName2:, PartyUserName3:,PartyUserName4:, PartyUserName5: ,bEntered:0 ,IsParty:0 ,bUse:0   RoomIndex ==> 3
06:14:10 [DSN][DebugLog][PartyDataSave_Arr][Set_DSNState_Ready]TeamIndex:[8], PartyUserName1:, PartyUserName2:, PartyUserName3:,PartyUserName4:, PartyUserName5: ,bEntered:0 ,IsParty:0 ,bUse:0   RoomIndex ==> 3
06:14:10 [DSN][DebugLog][PartyDataSave_Arr][Set_DSNState_Ready]TeamIndex:[9], PartyUserName1:, PartyUserName2:, PartyUserName3:,PartyUserName4:, PartyUserName5: ,bEntered:0 ,IsParty:0 ,bUse:0   RoomIndex ==> 3
06:14:10 [DSN][DebugLog][PartyDataSave_Arr][Set_DSNState_Ready]TeamIndex:[10], PartyUserName1:, PartyUserName2:, PartyUserName3:,PartyUserName4:, PartyUserName5: ,bEntered:0 ,IsParty:0 ,bUse:0   RoomIndex ==> 3
06:14:10 [DSN][DebugLog][PartyDataSave_Arr][Set_DSNState_Ready]TeamIndex:[11], PartyUserName1:, PartyUserName2:, PartyUserName3:,PartyUserName4:, PartyUserName5: ,bEntered:0 ,IsParty:0 ,bUse:0   RoomIndex ==> 3
06:14:10 [DSN][DebugLog][PartyDataSave_Arr][Set_DSNState_Ready]TeamIndex:[12], PartyUserName1:, PartyUserName2:, PartyUserName3:,PartyUserName4:, PartyUserName5: ,bEntered:0 ,IsParty:0 ,bUse:0   RoomIndex ==> 3
06:14:10 [DSN][DebugLog][PartyDataSave_Arr][Set_DSNState_Ready]TeamIndex:[13], PartyUserName1:, PartyUserName2:, PartyUserName3:,PartyUserName4:, PartyUserName5: ,bEntered:0 ,IsParty:0 ,bUse:0   RoomIndex ==> 3
06:14:10 [DSN][DebugLog][PartyDataSave_Arr][Set_DSNState_Ready]TeamIndex:[14], PartyUserName1:, PartyUserName2:, PartyUserName3:,PartyUserName4:, PartyUserName5: ,bEntered:0 ,IsParty:0 ,bUse:0   RoomIndex ==> 3
06:14:10 [DSN][DebugLog][PartyDataSave_Arr][Set_DSNState_Ready]TeamIndex:[15], PartyUserName1:, PartyUserName2:, PartyUserName3:,PartyUserName4:, PartyUserName5: ,bEntered:0 ,IsParty:0 ,bUse:0   RoomIndex ==> 3
06:14:10 [DSN][DebugLog][PartyDataSave_Arr][Set_DSNState_Ready]TeamIndex:[16], PartyUserName1:, PartyUserName2:, PartyUserName3:,PartyUserName4:, PartyUserName5: ,bEntered:0 ,IsParty:0 ,bUse:0   RoomIndex ==> 3
06:14:10 [DSN][DebugLog][PartyDataSave_Arr][Set_DSNState_Ready]TeamIndex:[17], PartyUserName1:, PartyUserName2:, PartyUserName3:,PartyUserName4:, PartyUserName5: ,bEntered:0 ,IsParty:0 ,bUse:0   RoomIndex ==> 3
06:14:10 [DSN][DebugLog][PartyDataSave_Arr][Set_DSNState_Ready]TeamIndex:[18], PartyUserName1:, PartyUserName2:, PartyUserName3:,PartyUserName4:, PartyUserName5: ,bEntered:0 ,IsParty:0 ,bUse:0   RoomIndex ==> 3
06:14:10 [DSN][DebugLog][PartyDataSave_Arr][Set_DSNState_Ready]TeamIndex:[19], PartyUserName1:, PartyUserName2:, PartyUserName3:,PartyUserName4:, PartyUserName5: ,bEntered:0 ,IsParty:0 ,bUse:0   RoomIndex ==> 3
06:14:10 [DSN][Set_DSNState_Ready] Ready processing. RoomIndex ==> 3
06:14:10 [DSN][ClearMonster] Clear Monster RoomIndex ==> 0
06:14:10 [DSN][Set_DSNState_End] Termination processing. RoomIndex ==> 0
06:14:10 [DSN][Proc_DSNState_Ready] End in ready state. UserCnt:0  RoomIndex ==> 0
06:14:10 [DSN][ClearMonster] Clear Monster RoomIndex ==> 1
06:14:10 [DSN][Set_DSNState_End] Termination processing. RoomIndex ==> 1
06:14:10 [DSN][Proc_DSNState_Ready] End in ready state. UserCnt:0  RoomIndex ==> 1
06:14:10 [DSN][ClearMonster] Clear Monster RoomIndex ==> 2
06:14:10 [DSN][Set_DSNState_End] Termination processing. RoomIndex ==> 2
06:14:10 [DSN][Proc_DSNState_Ready] End in ready state. UserCnt:0  RoomIndex ==> 2
06:14:10 [DSN][ClearMonster] Clear Monster RoomIndex ==> 3
06:14:10 [DSN][Set_DSNState_End] Termination processing. RoomIndex ==> 3
06:14:10 [DSN][Proc_DSNState_Ready] End in ready state. UserCnt:0  RoomIndex ==> 3
06:14:20 [DSN][DSN_ProcessInit] reset RoomIndex ==> 0
06:14:20 [DSN][Set_DSNState_None] NONE process. RoomIndex ==> 0
06:14:20 [DSN][Proc_DSNState_End] Ending round : 0 RoomIndex ==> 0
06:14:20 [DSN][DSN_ProcessInit] reset RoomIndex ==> 1
06:14:20 [DSN][Set_DSNState_None] NONE process. RoomIndex ==> 1
06:14:20 [DSN][Proc_DSNState_End] Ending round : 0 RoomIndex ==> 1
06:14:20 [DSN][DSN_ProcessInit] reset RoomIndex ==> 2
06:14:20 [DSN][Set_DSNState_None] NONE process. RoomIndex ==> 2
06:14:20 [DSN][Proc_DSNState_End] Ending round : 0 RoomIndex ==> 2
06:14:20 [DSN][DSN_ProcessInit] reset RoomIndex ==> 3
06:14:20 [DSN][Set_DSNState_None] NONE process. RoomIndex ==> 3
06:14:20 [DSN][Proc_DSNState_End] Ending round : 0 RoomIndex ==> 3
07:00:00 [Chaos Castle Survival] SetState STAND
07:00:01 [Chaos Castle Survival] Not enough users
07:00:01 [Chaos Castle Survival] Sync Start Time. [119] min remain
07:00:01 [Chaos Castle Survival][GDChaosCastleSurvivalRenewallRanking] [BattleType:1]
07:00:01 [Chaos Castle Survival] Ranking Load Successful [RankingCount:0]
07:00:01 [Chaos Castle Survival] SetState EMPTY
09:00:00 [Chaos Castle Survival] SetState STAND
09:00:01 [Chaos Castle Survival] Not enough users
09:00:01 [Chaos Castle Survival] Sync Start Time. [119] min remain
09:00:01 [Chaos Castle Survival][GDChaosCastleSurvivalRenewallRanking] [BattleType:1]
09:00:01 [Chaos Castle Survival] Ranking Load Successful [RankingCount:0]
09:00:01 [Chaos Castle Survival] SetState EMPTY
